ECE_351/Final_Pull_From_D2L/test_results.txt
# Reading C:/QuestaSim/tcl/vsim/pref.tcl
# //  Questa Sim-64
# //  Version 2019.2 win64 Apr 17 2019
# //
# //  Copyright 1991-2019 Mentor Graphics Corporation
# //  All Rights Reserved.
# //
# //  QuestaSim and its associated documentation contain trade
# //  secrets and commercial or financial information that are the property of
# //  Mentor Graphics Corporation and are privileged, confidential,
# //  and exempt from disclosure under the Freedom of Information Act,
# //  5 U.S.C. Section 552. Furthermore, this information
# //  is prohibited from disclosure under the Trade Secrets Act,
# //  18 U.S.C. Section 1905.
# //
# Loading project rca_exercise
# Compile of adder_4bits.sv was successful.
# Compile of dut.sv was successful.
# Compile of fa.sv was successful.
# Compile of tb_rca_8bits.released.sv was successful.
# 4 compiles, 0 failed with no errors.
vsim -voptargs=+acc work.tb_rca_8bits
# vsim -voptargs="+acc" work.tb_rca_8bits 
# Start time: 16:55:51 on Apr 09,2020
# ** Note: (vsim-3813) Design is being optimized due to module recompilation...
# Loading sv_std.std
# Loading work.tb_rca_8bits(fast)
# Loading work.dut(fast)
# Loading work.adder_4bits(fast)
# Loading work.fa(fast)
run -all
# Test some cases with carry in = 0
#                    0		A:  0	B:  x	Cin:x		Sum:  x	Cout:x
#                    1		A:  0	B: 16	Cin:0		Sum:  x	Cout:x
#                    9		A:  0	B: 16	Cin:0		Sum:  X	Cout:x
#                   11		A:  0	B: 16	Cin:0		Sum:  X	Cout:0
#                   15		A:  0	B: 16	Cin:0		Sum:  X	Cout:0
#                   21		A:  0	B: 16	Cin:0		Sum: 16	Cout:0
#                  101		A:  0	B:  x	Cin:x		Sum: 16	Cout:0
#                  102		A:  0	B: 17	Cin:0		Sum: 16	Cout:0
#                  110		A:  0	B: 17	Cin:0		Sum: 17	Cout:0
#                  202		A:  0	B:  x	Cin:x		Sum: 17	Cout:0
#                  203		A:  0	B: 18	Cin:0		Sum: 17	Cout:0
#                  211		A:  0	B: 18	Cin:0		Sum: 18	Cout:0
#                  303		A:  0	B:  x	Cin:x		Sum: 18	Cout:0
#                  304		A:  0	B: 19	Cin:0		Sum: 18	Cout:0
#                  312		A:  0	B: 19	Cin:0		Sum: 19	Cout:0
#                  404		A:  0	B:  x	Cin:x		Sum: 19	Cout:0
#                  405		A:  0	B: 20	Cin:0		Sum: 19	Cout:0
#                  413		A:  0	B: 20	Cin:0		Sum: 20	Cout:0
#                  505		A:  0	B:  x	Cin:x		Sum: 20	Cout:0
#                  506		A:  0	B: 21	Cin:0		Sum: 20	Cout:0
#                  514		A:  0	B: 21	Cin:0		Sum: 21	Cout:0
#                  606		A:  0	B:  x	Cin:x		Sum: 21	Cout:0
#                  607		A:  0	B: 22	Cin:0		Sum: 21	Cout:0
#                  615		A:  0	B: 22	Cin:0		Sum: 22	Cout:0
#                  707		A:  0	B:  x	Cin:x		Sum: 22	Cout:0
#                  708		A:  0	B: 23	Cin:0		Sum: 22	Cout:0
#                  716		A:  0	B: 23	Cin:0		Sum: 23	Cout:0
#                  808		A:  0	B:  x	Cin:x		Sum: 23	Cout:0
#                  809		A:  0	B: 24	Cin:0		Sum: 23	Cout:0
#                  817		A:  0	B: 24	Cin:0		Sum: 24	Cout:0
#                  909		A:  0	B:  x	Cin:x		Sum: 24	Cout:0
#                  910		A:  0	B: 25	Cin:0		Sum: 24	Cout:0
#                  918		A:  0	B: 25	Cin:0		Sum: 25	Cout:0
#                 1010		A:  0	B:  x	Cin:x		Sum: 25	Cout:0
#                 1011		A:  0	B: 26	Cin:0		Sum: 25	Cout:0
#                 1019		A:  0	B: 26	Cin:0		Sum: 26	Cout:0
#                 1111		A:  0	B:  x	Cin:x		Sum: 26	Cout:0
#                 1112		A:  0	B: 27	Cin:0		Sum: 26	Cout:0
#                 1120		A:  0	B: 27	Cin:0		Sum: 27	Cout:0
#                 1212		A:  0	B:  x	Cin:x		Sum: 27	Cout:0
#                 1213		A:  0	B: 28	Cin:0		Sum: 27	Cout:0
#                 1221		A:  0	B: 28	Cin:0		Sum: 28	Cout:0
#                 1313		A:  0	B:  x	Cin:x		Sum: 28	Cout:0
#                 1314		A:  0	B: 29	Cin:0		Sum: 28	Cout:0
#                 1322		A:  0	B: 29	Cin:0		Sum: 29	Cout:0
#                 1414		A:  0	B:  x	Cin:x		Sum: 29	Cout:0
#                 1415		A:  0	B: 30	Cin:0		Sum: 29	Cout:0
#                 1423		A:  0	B: 30	Cin:0		Sum: 30	Cout:0
#                 1515		A:  0	B:  x	Cin:x		Sum: 30	Cout:0
#                 1516		A:  0	B: 31	Cin:0		Sum: 30	Cout:0
#                 1524		A:  0	B: 31	Cin:0		Sum: 31	Cout:0
#                 1616		A:  1	B:  x	Cin:x		Sum: 31	Cout:0
#                 1617		A:  1	B: 16	Cin:0		Sum: 31	Cout:0
#                 1625		A:  1	B: 16	Cin:0		Sum: 17	Cout:0
#                 1717		A:  1	B:  x	Cin:x		Sum: 17	Cout:0
#                 1718		A:  1	B: 17	Cin:0		Sum: 17	Cout:0
#                 1726		A:  1	B: 17	Cin:0		Sum: 16	Cout:0
#                 1728		A:  1	B: 17	Cin:0		Sum: 18	Cout:0
#                 1818		A:  1	B:  x	Cin:x		Sum: 18	Cout:0
#                 1819		A:  1	B: 18	Cin:0		Sum: 18	Cout:0
#                 1827		A:  1	B: 18	Cin:0		Sum: 19	Cout:0
#                 1919		A:  1	B:  x	Cin:x		Sum: 19	Cout:0
#                 1920		A:  1	B: 19	Cin:0		Sum: 19	Cout:0
#                 1928		A:  1	B: 19	Cin:0		Sum: 18	Cout:0
#                 1930		A:  1	B: 19	Cin:0		Sum: 16	Cout:0
#                 1936		A:  1	B: 19	Cin:0		Sum: 20	Cout:0
#                 2020		A:  1	B:  x	Cin:x		Sum: 20	Cout:0
#                 2021		A:  1	B: 20	Cin:0		Sum: 20	Cout:0
#                 2029		A:  1	B: 20	Cin:0		Sum: 17	Cout:0
#                 2035		A:  1	B: 20	Cin:0		Sum: 29	Cout:0
#                 2041		A:  1	B: 20	Cin:0		Sum: 21	Cout:0
#                 2121		A:  1	B:  x	Cin:x		Sum: 21	Cout:0
#                 2122		A:  1	B: 21	Cin:0		Sum: 21	Cout:0
#                 2130		A:  1	B: 21	Cin:0		Sum: 20	Cout:0
#                 2132		A:  1	B: 21	Cin:0		Sum: 22	Cout:0
#                 2222		A:  1	B:  x	Cin:x		Sum: 22	Cout:0
#                 2223		A:  1	B: 22	Cin:0		Sum: 22	Cout:0
#                 2231		A:  1	B: 22	Cin:0		Sum: 23	Cout:0
#                 2323		A:  1	B:  x	Cin:x		Sum: 23	Cout:0
#                 2324		A:  1	B: 23	Cin:0		Sum: 23	Cout:0
#                 2332		A:  1	B: 23	Cin:0		Sum: 22	Cout:0
#                 2334		A:  1	B: 23	Cin:0		Sum: 20	Cout:0
#                 2340		A:  1	B: 23	Cin:0		Sum: 16	Cout:0
#                 2346		A:  1	B: 23	Cin:0		Sum: 24	Cout:0
#                 2424		A:  1	B:  x	Cin:x		Sum: 24	Cout:0
#                 2425		A:  1	B: 24	Cin:0		Sum: 24	Cout:0
#                 2433		A:  1	B: 24	Cin:0		Sum: 21	Cout:0
#                 2439		A:  1	B: 24	Cin:0		Sum:  9	Cout:0
#                 2445		A:  1	B: 24	Cin:0		Sum: 57	Cout:0
#                 2451		A:  1	B: 24	Cin:0		Sum: 25	Cout:0
#                 2525		A:  1	B:  x	Cin:x		Sum: 25	Cout:0
#                 2526		A:  1	B: 25	Cin:0		Sum: 25	Cout:0
#                 2534		A:  1	B: 25	Cin:0		Sum: 24	Cout:0
#                 2536		A:  1	B: 25	Cin:0		Sum: 26	Cout:0
#                 2626		A:  1	B:  x	Cin:x		Sum: 26	Cout:0
#                 2627		A:  1	B: 26	Cin:0		Sum: 26	Cout:0
#                 2635		A:  1	B: 26	Cin:0		Sum: 27	Cout:0
#                 2727		A:  1	B:  x	Cin:x		Sum: 27	Cout:0
#                 2728		A:  1	B: 27	Cin:0		Sum: 27	Cout:0
#                 2736		A:  1	B: 27	Cin:0		Sum: 26	Cout:0
#                 2738		A:  1	B: 27	Cin:0		Sum: 24	Cout:0
#                 2744		A:  1	B: 27	Cin:0		Sum: 28	Cout:0
#                 2828		A:  1	B:  x	Cin:x		Sum: 28	Cout:0
#                 2829		A:  1	B: 28	Cin:0		Sum: 28	Cout:0
#                 2837		A:  1	B: 28	Cin:0		Sum: 25	Cout:0
#                 2843		A:  1	B: 28	Cin:0		Sum: 21	Cout:0
#                 2849		A:  1	B: 28	Cin:0		Sum: 13	Cout:0
#                 2855		A:  1	B: 28	Cin:0		Sum: 61	Cout:0
#                 2861		A:  1	B: 28	Cin:0		Sum: 29	Cout:0
#                 2929		A:  1	B:  x	Cin:x		Sum: 29	Cout:0
#                 2930		A:  1	B: 29	Cin:0		Sum: 29	Cout:0
#                 2938		A:  1	B: 29	Cin:0		Sum: 28	Cout:0
#                 2940		A:  1	B: 29	Cin:0		Sum: 30	Cout:0
#                 3030		A:  1	B:  x	Cin:x		Sum: 30	Cout:0
#                 3031		A:  1	B: 30	Cin:0		Sum: 30	Cout:0
#                 3039		A:  1	B: 30	Cin:0		Sum: 31	Cout:0
#                 3131		A:  1	B:  x	Cin:x		Sum: 31	Cout:0
#                 3132		A:  1	B: 31	Cin:0		Sum: 31	Cout:0
#                 3140		A:  1	B: 31	Cin:0		Sum: 30	Cout:0
#                 3142		A:  1	B: 31	Cin:0		Sum: 28	Cout:0
#                 3148		A:  1	B: 31	Cin:0		Sum: 24	Cout:0
#                 3154		A:  1	B: 31	Cin:0		Sum: 16	Cout:0
#                 3160		A:  1	B: 31	Cin:0		Sum:  0	Cout:0
#                 3166		A:  1	B: 31	Cin:0		Sum: 32	Cout:0
#                 3232		A:  2	B:  x	Cin:x		Sum: 32	Cout:0
#                 3233		A:  2	B: 16	Cin:0		Sum: 32	Cout:0
#                 3241		A:  2	B: 16	Cin:0		Sum: 44	Cout:0
#                 3242		A:  2	B: 16	Cin:0		Sum: 46	Cout:0
#                 3247		A:  2	B: 16	Cin:0		Sum: 54	Cout:0
#                 3248		A:  2	B: 16	Cin:0		Sum: 50	Cout:0
#                 3253		A:  2	B: 16	Cin:0		Sum: 18	Cout:0
#                 3333		A:  2	B:  x	Cin:x		Sum: 18	Cout:0
#                 3334		A:  2	B: 17	Cin:0		Sum: 18	Cout:0
#                 3342		A:  2	B: 17	Cin:0		Sum: 19	Cout:0
#                 3434		A:  2	B:  x	Cin:x		Sum: 19	Cout:0
#                 3435		A:  2	B: 18	Cin:0		Sum: 19	Cout:0
#                 3443		A:  2	B: 18	Cin:0		Sum: 16	Cout:0
#                 3445		A:  2	B: 18	Cin:0		Sum: 20	Cout:0
#                 3535		A:  2	B:  x	Cin:x		Sum: 20	Cout:0
#                 3536		A:  2	B: 19	Cin:0		Sum: 20	Cout:0
#                 3544		A:  2	B: 19	Cin:0		Sum: 21	Cout:0
#                 3636		A:  2	B:  x	Cin:x		Sum: 21	Cout:0
#                 3637		A:  2	B: 20	Cin:0		Sum: 21	Cout:0
#                 3645		A:  2	B: 20	Cin:0		Sum: 22	Cout:0
#                 3737		A:  2	B:  x	Cin:x		Sum: 22	Cout:0
#                 3738		A:  2	B: 21	Cin:0		Sum: 22	Cout:0
#                 3746		A:  2	B: 21	Cin:0		Sum: 23	Cout:0
#                 3838		A:  2	B:  x	Cin:x		Sum: 23	Cout:0
#                 3839		A:  2	B: 22	Cin:0		Sum: 23	Cout:0
#                 3847		A:  2	B: 22	Cin:0		Sum: 20	Cout:0
#                 3849		A:  2	B: 22	Cin:0		Sum: 16	Cout:0
#                 3855		A:  2	B: 22	Cin:0		Sum: 24	Cout:0
#                 3939		A:  2	B:  x	Cin:x		Sum: 24	Cout:0
#                 3940		A:  2	B: 23	Cin:0		Sum: 24	Cout:0
#                 3948		A:  2	B: 23	Cin:0		Sum: 25	Cout:0
#                 4040		A:  2	B:  x	Cin:x		Sum: 25	Cout:0
#                 4041		A:  2	B: 24	Cin:0		Sum: 25	Cout:0
#                 4049		A:  2	B: 24	Cin:0		Sum: 18	Cout:0
#                 4055		A:  2	B: 24	Cin:0		Sum: 10	Cout:0
#                 4061		A:  2	B: 24	Cin:0		Sum: 58	Cout:0
#                 4067		A:  2	B: 24	Cin:0		Sum: 26	Cout:0
#                 4141		A:  2	B:  x	Cin:x		Sum: 26	Cout:0
#                 4142		A:  2	B: 25	Cin:0		Sum: 26	Cout:0
#                 4150		A:  2	B: 25	Cin:0		Sum: 27	Cout:0
#                 4242		A:  2	B:  x	Cin:x		Sum: 27	Cout:0
#                 4243		A:  2	B: 26	Cin:0		Sum: 27	Cout:0
#                 4251		A:  2	B: 26	Cin:0		Sum: 24	Cout:0
#                 4253		A:  2	B: 26	Cin:0		Sum: 28	Cout:0
#                 4343		A:  2	B:  x	Cin:x		Sum: 28	Cout:0
#                 4344		A:  2	B: 27	Cin:0		Sum: 28	Cout:0
#                 4352		A:  2	B: 27	Cin:0		Sum: 29	Cout:0
#                 4444		A:  2	B:  x	Cin:x		Sum: 29	Cout:0
#                 4445		A:  2	B: 28	Cin:0		Sum: 29	Cout:0
#                 4453		A:  2	B: 28	Cin:0		Sum: 30	Cout:0
#                 4545		A:  2	B:  x	Cin:x		Sum: 30	Cout:0
#                 4546		A:  2	B: 29	Cin:0		Sum: 30	Cout:0
#                 4554		A:  2	B: 29	Cin:0		Sum: 31	Cout:0
#                 4646		A:  2	B:  x	Cin:x		Sum: 31	Cout:0
#                 4647		A:  2	B: 30	Cin:0		Sum: 31	Cout:0
#                 4655		A:  2	B: 30	Cin:0		Sum: 28	Cout:0
#                 4657		A:  2	B: 30	Cin:0		Sum: 24	Cout:0
#                 4663		A:  2	B: 30	Cin:0		Sum: 16	Cout:0
#                 4669		A:  2	B: 30	Cin:0		Sum:  0	Cout:0
#                 4675		A:  2	B: 30	Cin:0		Sum: 32	Cout:0
#                 4747		A:  2	B:  x	Cin:x		Sum: 32	Cout:0
#                 4748		A:  2	B: 31	Cin:0		Sum: 32	Cout:0
#                 4756		A:  2	B: 31	Cin:0		Sum: 33	Cout:0
#                 4848		A:  3	B:  x	Cin:x		Sum: 33	Cout:0
#                 4849		A:  3	B: 16	Cin:0		Sum: 33	Cout:0
#                 4857		A:  3	B: 16	Cin:0		Sum: 43	Cout:0
#                 4863		A:  3	B: 16	Cin:0		Sum: 51	Cout:0
#                 4869		A:  3	B: 16	Cin:0		Sum: 19	Cout:0
#                 4949		A:  3	B:  x	Cin:x		Sum: 19	Cout:0
#                 4950		A:  3	B: 17	Cin:0		Sum: 19	Cout:0
#                 4958		A:  3	B: 17	Cin:0		Sum: 18	Cout:0
#                 4960		A:  3	B: 17	Cin:0		Sum: 16	Cout:0
#                 4966		A:  3	B: 17	Cin:0		Sum: 20	Cout:0
#                 5050		A:  3	B:  x	Cin:x		Sum: 20	Cout:0
#                 5051		A:  3	B: 18	Cin:0		Sum: 20	Cout:0
#                 5059		A:  3	B: 18	Cin:0		Sum: 21	Cout:0
#                 5151		A:  3	B:  x	Cin:x		Sum: 21	Cout:0
#                 5152		A:  3	B: 19	Cin:0		Sum: 21	Cout:0
#                 5160		A:  3	B: 19	Cin:0		Sum: 20	Cout:0
#                 5162		A:  3	B: 19	Cin:0		Sum: 22	Cout:0
#                 5252		A:  3	B:  x	Cin:x		Sum: 22	Cout:0
#                 5253		A:  3	B: 20	Cin:0		Sum: 22	Cout:0
#                 5261		A:  3	B: 20	Cin:0		Sum: 23	Cout:0
#                 5353		A:  3	B:  x	Cin:x		Sum: 23	Cout:0
#                 5354		A:  3	B: 21	Cin:0		Sum: 23	Cout:0
#                 5362		A:  3	B: 21	Cin:0		Sum: 22	Cout:0
#                 5364		A:  3	B: 21	Cin:0		Sum: 20	Cout:0
#                 5370		A:  3	B: 21	Cin:0		Sum: 16	Cout:0
#                 5376		A:  3	B: 21	Cin:0		Sum: 24	Cout:0
#                 5454		A:  3	B:  x	Cin:x		Sum: 24	Cout:0
#                 5455		A:  3	B: 22	Cin:0		Sum: 24	Cout:0
#                 5463		A:  3	B: 22	Cin:0		Sum: 25	Cout:0
#                 5555		A:  3	B:  x	Cin:x		Sum: 25	Cout:0
#                 5556		A:  3	B: 23	Cin:0		Sum: 25	Cout:0
#                 5564		A:  3	B: 23	Cin:0		Sum: 24	Cout:0
#                 5566		A:  3	B: 23	Cin:0		Sum: 26	Cout:0
#                 5656		A:  3	B:  x	Cin:x		Sum: 26	Cout:0
#                 5657		A:  3	B: 24	Cin:0		Sum: 26	Cout:0
#                 5665		A:  3	B: 24	Cin:0		Sum: 19	Cout:0
#                 5671		A:  3	B: 24	Cin:0		Sum: 11	Cout:0
#                 5677		A:  3	B: 24	Cin:0		Sum: 59	Cout:0
#                 5683		A:  3	B: 24	Cin:0		Sum: 27	Cout:0
#                 5757		A:  3	B:  x	Cin:x		Sum: 27	Cout:0
#                 5758		A:  3	B: 25	Cin:0		Sum: 27	Cout:0
#                 5766		A:  3	B: 25	Cin:0		Sum: 26	Cout:0
#                 5768		A:  3	B: 25	Cin:0		Sum: 24	Cout:0
#                 5774		A:  3	B: 25	Cin:0		Sum: 28	Cout:0
#                 5858		A:  3	B:  x	Cin:x		Sum: 28	Cout:0
#                 5859		A:  3	B: 26	Cin:0		Sum: 28	Cout:0
#                 5867		A:  3	B: 26	Cin:0		Sum: 29	Cout:0
#                 5959		A:  3	B:  x	Cin:x		Sum: 29	Cout:0
#                 5960		A:  3	B: 27	Cin:0		Sum: 29	Cout:0
#                 5968		A:  3	B: 27	Cin:0		Sum: 28	Cout:0
#                 5970		A:  3	B: 27	Cin:0		Sum: 30	Cout:0
#                 6060		A:  3	B:  x	Cin:x		Sum: 30	Cout:0
#                 6061		A:  3	B: 28	Cin:0		Sum: 30	Cout:0
#                 6069		A:  3	B: 28	Cin:0		Sum: 31	Cout:0
#                 6161		A:  3	B:  x	Cin:x		Sum: 31	Cout:0
#                 6162		A:  3	B: 29	Cin:0		Sum: 31	Cout:0
#                 6170		A:  3	B: 29	Cin:0		Sum: 30	Cout:0
#                 6172		A:  3	B: 29	Cin:0		Sum: 28	Cout:0
#                 6178		A:  3	B: 29	Cin:0		Sum: 24	Cout:0
#                 6184		A:  3	B: 29	Cin:0		Sum: 16	Cout:0
#                 6190		A:  3	B: 29	Cin:0		Sum:  0	Cout:0
#                 6196		A:  3	B: 29	Cin:0		Sum: 32	Cout:0
#                 6262		A:  3	B:  x	Cin:x		Sum: 32	Cout:0
#                 6263		A:  3	B: 30	Cin:0		Sum: 32	Cout:0
#                 6271		A:  3	B: 30	Cin:0		Sum: 33	Cout:0
#                 6363		A:  3	B:  x	Cin:x		Sum: 33	Cout:0
#                 6364		A:  3	B: 31	Cin:0		Sum: 33	Cout:0
#                 6372		A:  3	B: 31	Cin:0		Sum: 32	Cout:0
#                 6374		A:  3	B: 31	Cin:0		Sum: 34	Cout:0
#                 6464		A:  4	B:  x	Cin:x		Sum: 34	Cout:0
#                 6465		A:  4	B: 16	Cin:0		Sum: 34	Cout:0
#                 6473		A:  4	B: 16	Cin:0		Sum: 42	Cout:0
#                 6474		A:  4	B: 16	Cin:0		Sum: 44	Cout:0
#                 6479		A:  4	B: 16	Cin:0		Sum: 60	Cout:0
#                 6480		A:  4	B: 16	Cin:0		Sum: 52	Cout:0
#                 6485		A:  4	B: 16	Cin:0		Sum: 20	Cout:0
#                 6565		A:  4	B:  x	Cin:x		Sum: 20	Cout:0
#                 6566		A:  4	B: 17	Cin:0		Sum: 20	Cout:0
#                 6574		A:  4	B: 17	Cin:0		Sum: 21	Cout:0
#                 6666		A:  4	B:  x	Cin:x		Sum: 21	Cout:0
#                 6667		A:  4	B: 18	Cin:0		Sum: 21	Cout:0
#                 6675		A:  4	B: 18	Cin:0		Sum: 22	Cout:0
#                 6767		A:  4	B:  x	Cin:x		Sum: 22	Cout:0
#                 6768		A:  4	B: 19	Cin:0		Sum: 22	Cout:0
#                 6776		A:  4	B: 19	Cin:0		Sum: 23	Cout:0
#                 6868		A:  4	B:  x	Cin:x		Sum: 23	Cout:0
#                 6869		A:  4	B: 20	Cin:0		Sum: 23	Cout:0
#                 6877		A:  4	B: 20	Cin:0		Sum: 16	Cout:0
#                 6879		A:  4	B: 20	Cin:0		Sum: 24	Cout:0
#                 6969		A:  4	B:  x	Cin:x		Sum: 24	Cout:0
#                 6970		A:  4	B: 21	Cin:0		Sum: 24	Cout:0
#                 6978		A:  4	B: 21	Cin:0		Sum: 25	Cout:0
#                 7070		A:  4	B:  x	Cin:x		Sum: 25	Cout:0
#                 7071		A:  4	B: 22	Cin:0		Sum: 25	Cout:0
#                 7079		A:  4	B: 22	Cin:0		Sum: 26	Cout:0
#                 7171		A:  4	B:  x	Cin:x		Sum: 26	Cout:0
#                 7172		A:  4	B: 23	Cin:0		Sum: 26	Cout:0
#                 7180		A:  4	B: 23	Cin:0		Sum: 27	Cout:0
#                 7272		A:  4	B:  x	Cin:x		Sum: 27	Cout:0
#                 7273		A:  4	B: 24	Cin:0		Sum: 27	Cout:0
#                 7281		A:  4	B: 24	Cin:0		Sum: 28	Cout:0
#                 7373		A:  4	B:  x	Cin:x		Sum: 28	Cout:0
#                 7374		A:  4	B: 25	Cin:0		Sum: 28	Cout:0
#                 7382		A:  4	B: 25	Cin:0		Sum: 29	Cout:0
#                 7474		A:  4	B:  x	Cin:x		Sum: 29	Cout:0
#                 7475		A:  4	B: 26	Cin:0		Sum: 29	Cout:0
#                 7483		A:  4	B: 26	Cin:0		Sum: 30	Cout:0
#                 7575		A:  4	B:  x	Cin:x		Sum: 30	Cout:0
#                 7576		A:  4	B: 27	Cin:0		Sum: 30	Cout:0
#                 7584		A:  4	B: 27	Cin:0		Sum: 31	Cout:0
#                 7676		A:  4	B:  x	Cin:x		Sum: 31	Cout:0
#                 7677		A:  4	B: 28	Cin:0		Sum: 31	Cout:0
#                 7685		A:  4	B: 28	Cin:0		Sum: 24	Cout:0
#                 7687		A:  4	B: 28	Cin:0		Sum: 16	Cout:0
#                 7693		A:  4	B: 28	Cin:0		Sum:  0	Cout:0
#                 7699		A:  4	B: 28	Cin:0		Sum: 32	Cout:0
#                 7777		A:  4	B:  x	Cin:x		Sum: 32	Cout:0
#                 7778		A:  4	B: 29	Cin:0		Sum: 32	Cout:0
#                 7786		A:  4	B: 29	Cin:0		Sum: 33	Cout:0
#                 7878		A:  4	B:  x	Cin:x		Sum: 33	Cout:0
#                 7879		A:  4	B: 30	Cin:0		Sum: 33	Cout:0
#                 7887		A:  4	B: 30	Cin:0		Sum: 34	Cout:0
#                 7979		A:  4	B:  x	Cin:x		Sum: 34	Cout:0
#                 7980		A:  4	B: 31	Cin:0		Sum: 34	Cout:0
#                 7988		A:  4	B: 31	Cin:0		Sum: 35	Cout:0
#                 8080		A:  5	B:  x	Cin:x		Sum: 35	Cout:0
#                 8081		A:  5	B: 16	Cin:0		Sum: 35	Cout:0
#                 8089		A:  5	B: 16	Cin:0		Sum: 37	Cout:0
#                 8095		A:  5	B: 16	Cin:0		Sum: 53	Cout:0
#                 8101		A:  5	B: 16	Cin:0		Sum: 21	Cout:0
#                 8181		A:  5	B:  x	Cin:x		Sum: 21	Cout:0
#                 8182		A:  5	B: 17	Cin:0		Sum: 21	Cout:0
#                 8190		A:  5	B: 17	Cin:0		Sum: 20	Cout:0
#                 8192		A:  5	B: 17	Cin:0		Sum: 22	Cout:0
#                 8282		A:  5	B:  x	Cin:x		Sum: 22	Cout:0
#                 8283		A:  5	B: 18	Cin:0		Sum: 22	Cout:0
#                 8291		A:  5	B: 18	Cin:0		Sum: 23	Cout:0
#                 8383		A:  5	B:  x	Cin:x		Sum: 23	Cout:0
#                 8384		A:  5	B: 19	Cin:0		Sum: 23	Cout:0
#                 8392		A:  5	B: 19	Cin:0		Sum: 22	Cout:0
#                 8394		A:  5	B: 19	Cin:0		Sum: 20	Cout:0
#                 8400		A:  5	B: 19	Cin:0		Sum: 16	Cout:0
#                 8406		A:  5	B: 19	Cin:0		Sum: 24	Cout:0
#                 8484		A:  5	B:  x	Cin:x		Sum: 24	Cout:0
#                 8485		A:  5	B: 20	Cin:0		Sum: 24	Cout:0
#                 8493		A:  5	B: 20	Cin:0		Sum: 29	Cout:0
#                 8499		A:  5	B: 20	Cin:0		Sum: 25	Cout:0
#                 8585		A:  5	B:  x	Cin:x		Sum: 25	Cout:0
#                 8586		A:  5	B: 21	Cin:0		Sum: 25	Cout:0
#                 8594		A:  5	B: 21	Cin:0		Sum: 24	Cout:0
#                 8596		A:  5	B: 21	Cin:0		Sum: 26	Cout:0
#                 8686		A:  5	B:  x	Cin:x		Sum: 26	Cout:0
#                 8687		A:  5	B: 22	Cin:0		Sum: 26	Cout:0
#                 8695		A:  5	B: 22	Cin:0		Sum: 27	Cout:0
#                 8787		A:  5	B:  x	Cin:x		Sum: 27	Cout:0
#                 8788		A:  5	B: 23	Cin:0		Sum: 27	Cout:0
#                 8796		A:  5	B: 23	Cin:0		Sum: 26	Cout:0
#                 8798		A:  5	B: 23	Cin:0		Sum: 24	Cout:0
#                 8804		A:  5	B: 23	Cin:0		Sum: 28	Cout:0
#                 8888		A:  5	B:  x	Cin:x		Sum: 28	Cout:0
#                 8889		A:  5	B: 24	Cin:0		Sum: 28	Cout:0
#                 8897		A:  5	B: 24	Cin:0		Sum: 25	Cout:0
#                 8903		A:  5	B: 24	Cin:0		Sum: 21	Cout:0
#                 8909		A:  5	B: 24	Cin:0		Sum: 13	Cout:0
#                 8915		A:  5	B: 24	Cin:0		Sum: 61	Cout:0
#                 8921		A:  5	B: 24	Cin:0		Sum: 29	Cout:0
#                 8989		A:  5	B:  x	Cin:x		Sum: 29	Cout:0
#                 8990		A:  5	B: 25	Cin:0		Sum: 29	Cout:0
#                 8998		A:  5	B: 25	Cin:0		Sum: 28	Cout:0
#                 9000		A:  5	B: 25	Cin:0		Sum: 30	Cout:0
#                 9090		A:  5	B:  x	Cin:x		Sum: 30	Cout:0
#                 9091		A:  5	B: 26	Cin:0		Sum: 30	Cout:0
#                 9099		A:  5	B: 26	Cin:0		Sum: 31	Cout:0
#                 9191		A:  5	B:  x	Cin:x		Sum: 31	Cout:0
#                 9192		A:  5	B: 27	Cin:0		Sum: 31	Cout:0
#                 9200		A:  5	B: 27	Cin:0		Sum: 30	Cout:0
#                 9202		A:  5	B: 27	Cin:0		Sum: 28	Cout:0
#                 9208		A:  5	B: 27	Cin:0		Sum: 24	Cout:0
#                 9214		A:  5	B: 27	Cin:0		Sum: 16	Cout:0
#                 9220		A:  5	B: 27	Cin:0		Sum:  0	Cout:0
#                 9226		A:  5	B: 27	Cin:0		Sum: 32	Cout:0
#                 9292		A:  5	B:  x	Cin:x		Sum: 32	Cout:0
#                 9293		A:  5	B: 28	Cin:0		Sum: 32	Cout:0
#                 9301		A:  5	B: 28	Cin:0		Sum: 37	Cout:0
#                 9307		A:  5	B: 28	Cin:0		Sum: 33	Cout:0
#                 9393		A:  5	B:  x	Cin:x		Sum: 33	Cout:0
#                 9394		A:  5	B: 29	Cin:0		Sum: 33	Cout:0
#                 9402		A:  5	B: 29	Cin:0		Sum: 32	Cout:0
#                 9404		A:  5	B: 29	Cin:0		Sum: 34	Cout:0
#                 9494		A:  5	B:  x	Cin:x		Sum: 34	Cout:0
#                 9495		A:  5	B: 30	Cin:0		Sum: 34	Cout:0
#                 9503		A:  5	B: 30	Cin:0		Sum: 35	Cout:0
#                 9595		A:  5	B:  x	Cin:x		Sum: 35	Cout:0
#                 9596		A:  5	B: 31	Cin:0		Sum: 35	Cout:0
#                 9604		A:  5	B: 31	Cin:0		Sum: 34	Cout:0
#                 9606		A:  5	B: 31	Cin:0		Sum: 32	Cout:0
#                 9612		A:  5	B: 31	Cin:0		Sum: 36	Cout:0
#                 9696		A:  6	B:  x	Cin:x		Sum: 36	Cout:0
#                 9697		A:  6	B: 16	Cin:0		Sum: 36	Cout:0
#                 9705		A:  6	B: 16	Cin:0		Sum: 32	Cout:0
#                 9706		A:  6	B: 16	Cin:0		Sum: 34	Cout:0
#                 9711		A:  6	B: 16	Cin:0		Sum: 58	Cout:0
#                 9712		A:  6	B: 16	Cin:0		Sum: 62	Cout:0
#                 9717		A:  6	B: 16	Cin:0		Sum: 30	Cout:0
#                 9718		A:  6	B: 16	Cin:0		Sum: 22	Cout:0
#                 9797		A:  6	B:  x	Cin:x		Sum: 22	Cout:0
#                 9798		A:  6	B: 17	Cin:0		Sum: 22	Cout:0
#                 9806		A:  6	B: 17	Cin:0		Sum: 23	Cout:0
#                 9898		A:  6	B:  x	Cin:x		Sum: 23	Cout:0
#                 9899		A:  6	B: 18	Cin:0		Sum: 23	Cout:0
#                 9907		A:  6	B: 18	Cin:0		Sum: 20	Cout:0
#                 9909		A:  6	B: 18	Cin:0		Sum: 16	Cout:0
#                 9915		A:  6	B: 18	Cin:0		Sum: 24	Cout:0
#                 9999		A:  6	B:  x	Cin:x		Sum: 24	Cout:0
#                10000		A:  6	B: 19	Cin:0		Sum: 24	Cout:0
#                10008		A:  6	B: 19	Cin:0		Sum: 25	Cout:0
#                10100		A:  6	B:  x	Cin:x		Sum: 25	Cout:0
#                10101		A:  6	B: 20	Cin:0		Sum: 25	Cout:0
#                10109		A:  6	B: 20	Cin:0		Sum: 26	Cout:0
#                10201		A:  6	B:  x	Cin:x		Sum: 26	Cout:0
#                10202		A:  6	B: 21	Cin:0		Sum: 26	Cout:0
#                10210		A:  6	B: 21	Cin:0		Sum: 27	Cout:0
#                10302		A:  6	B:  x	Cin:x		Sum: 27	Cout:0
#                10303		A:  6	B: 22	Cin:0		Sum: 27	Cout:0
#                10311		A:  6	B: 22	Cin:0		Sum: 24	Cout:0
